<?xml version="1.0" encoding="UTF-8" standalone="no"?>
<!-- Generator: Adobe Illustrator 19.0.0, SVG Export Plug-In . SVG Version: 6.00 Build 0)  -->

<svg
   version="1.1"
   id="Capa_1"
   x="0px"
   y="0px"
   viewBox="0 0 55 55"
   style="enable-background:new 0 0 55 55;"
   xml:space="preserve"
   sodipodi:docname="map-vecor.svg"
   inkscape:version="1.1.2 (1:1.1+202202050950+0a00cf5339)"
   xmlns:inkscape="http://www.inkscape.org/namespaces/inkscape"
   xmlns:sodipodi="http://sodipodi.sourceforge.net/DTD/sodipodi-0.dtd"
   xmlns="http://www.w3.org/2000/svg"
   xmlns:svg="http://www.w3.org/2000/svg"><defs
   id="defs129" /><sodipodi:namedview
   id="namedview127"
   pagecolor="#ffffff"
   bordercolor="#666666"
   borderopacity="1.0"
   inkscape:pageshadow="2"
   inkscape:pageopacity="0.0"
   inkscape:pagecheckerboard="0"
   showgrid="false"
   inkscape:zoom="11.984939"
   inkscape:cx="30.955518"
   inkscape:cy="30.413171"
   inkscape:window-width="1341"
   inkscape:window-height="744"
   inkscape:window-x="25"
   inkscape:window-y="0"
   inkscape:window-maximized="1"
   inkscape:current-layer="Capa_1" />
<g
   id="g94">
	<path
   d="M20,6.263l15,3.529v40.016l-15-2.647V6.263 M19.001,4.001c-0.224,0-0.443,0.075-0.622,0.216C18.14,4.406,18,4.695,18,5.001   v43c0,0.485,0.348,0.9,0.826,0.984l17,3c0.058,0.011,0.116,0.016,0.174,0.016c0.233,0,0.461-0.082,0.643-0.234   C36.869,51.577,37,51.296,37,51.001v-42c0-0.464-0.319-0.867-0.771-0.974l-17-4C19.153,4.009,19.077,4.001,19.001,4.001   L19.001,4.001z"
   id="path86" />
	<g
   id="g92">
		<path
   d="M54.584,2.189c-0.261-0.188-0.597-0.241-0.901-0.137l-18,6C35.275,8.188,35,8.57,35,9.001v42    c0,0.33,0.163,0.639,0.436,0.825c0.168,0.115,0.366,0.175,0.564,0.175c0.123,0,0.245-0.022,0.362-0.068l18-7    C54.747,44.783,55,44.413,55,44.001v-41C55,2.679,54.846,2.378,54.584,2.189z"
   id="path88" />
		<path
   d="M18.783,4.024l-18,4C0.326,8.127,0,8.532,0,9.001v43c0,0.304,0.138,0.59,0.375,0.78c0.179,0.144,0.4,0.22,0.625,0.22    c0.072,0,0.145-0.008,0.217-0.023l18-4C19.674,48.875,20,48.469,20,48.001v-43c0-0.304-0.138-0.59-0.375-0.78    C19.39,4.031,19.08,3.961,18.783,4.024z"
   id="path90" />
	</g>
</g>
<g
   id="g96">
</g>
<g
   id="g98">
</g>
<g
   id="g100">
</g>
<g
   id="g102">
</g>
<g
   id="g104">
</g>
<g
   id="g106">
</g>
<g
   id="g108">
</g>
<g
   id="g110">
</g>
<g
   id="g112">
</g>
<g
   id="g114">
</g>
<g
   id="g116">
</g>
<g
   id="g118">
</g>
<g
   id="g120">
</g>
<g
   id="g122">
</g>
<g
   id="g124">
</g>
<ellipse
   style="fill:#ffffff"
   id="path288"
   cx="12.363664"
   cy="27.678749"
   rx="1.9985827"
   ry="2.0902824" /><ellipse
   style="fill:#ffffff"
   id="path288-7"
   cx="60.686646"
   cy="24.107689"
   rx="1.9985827"
   ry="2.0902824" /><ellipse
   style="fill:#ffffff"
   id="path288-6"
   cx="70.520531"
   cy="34.076313"
   rx="1.9985827"
   ry="2.0902824" /><ellipse
   style="fill:#000000"
   id="path288-2-1"
   cx="29.778009"
   cy="38.241394"
   rx="1.9985827"
   ry="2.0902824" /><ellipse
   style="fill:#ffffff"
   id="path288-3"
   cx="69.226601"
   cy="21.893219"
   rx="1.9985827"
   ry="2.0902824" /><ellipse
   style="fill:#ffffff"
   id="path288-3-6"
   cx="15.593394"
   cy="40.649544"
   rx="1.9985827"
   ry="2.0902824" /><path
   style="opacity:0;fill:#ffffff"
   id="path1082"
   d="m 6.2704301,21.020533 c 0.5093529,0.595789 1.0347862,1.177627 1.5526224,1.766054 0.3421404,0.406772 0.6878434,0.811285 1.0491025,1.20128 0.3065132,0.285732 0.5712011,0.608317 0.8256385,0.940182 0.1792421,0.258812 0.3592775,0.516324 0.5335825,0.778437 0.07257,0.11385 0.175751,0.201148 0.244731,0.316736 0.06783,0.129779 0.08583,0.275267 0.147183,0.407706 0.08249,0.171312 0.155165,0.346793 0.226476,0.523065 0.04467,0.105374 0.104429,0.203418 0.162516,0.301744 0.0275,0.04829 0.06321,0.08656 0.105736,0.121673 0,0 1.272794,-0.829978 1.272794,-0.829978 v 0 c -0.03585,0.0021 -0.04544,-0.02734 -0.06578,-0.05305 -0.05607,-0.09092 -0.115706,-0.18017 -0.162247,-0.27639 -0.07659,-0.176657 -0.14624,-0.356114 -0.221767,-0.533195 -0.06436,-0.134078 -0.08092,-0.286704 -0.159009,-0.415415 -0.06897,-0.122982 -0.159792,-0.222872 -0.25364,-0.327426 -0.190107,-0.25437 -0.374437,-0.5132 -0.560343,-0.770636 C 10.70711,23.83973 10.459076,23.495668 10.142438,23.213581 9.7689293,22.8333 9.4094959,22.438472 9.0546989,22.040781 8.5287648,21.468362 7.9999848,20.892768 7.561646,20.248828 c 0,0 -1.2912159,0.771705 -1.2912159,0.771705 z" /><path
   style="fill:#88aa00;stroke:#000000;stroke-width:1px;stroke-linecap:butt;stroke-linejoin:miter;stroke-opacity:1"
   d="m 11.528369,24.941956 v 0 L 5.2336997,29.20733 9.6185317,47.345797 29.598513,36.993037 23.004799,21.182358 30.574286,17.539387 c 0,0 9.411094,-2.977206 9.805307,-2.755858 l 11.327723,6.36045 -7.692589,8.869702 -5.507481,12.269008 -0.226623,0.504848 -26.752254,-17.845581"
   id="path1955"
   sodipodi:nodetypes="cccccccsccccc" /><path
   style="fill:#ffd42a;stroke:#000000;stroke-width:1px;stroke-linecap:butt;stroke-linejoin:miter;stroke-opacity:1"
   d="M 39.448055,19.134989 48.434413,24.849637 41.19735,34.95527 37.353476,29.239213 37.037174,19.635309 Z"
   id="path5701" /></svg>
